{
	"data":
		[[2,2,2,2,2,2,2,2,2,2,2,2,2,2,2,2,2,2,2,2,2,2,2,2,2,2,2,2,2,2,2,2,2,2,2,2,2,2,2],
		 [2,0,0,0,0,0,0,0,0,0,0,0,0,0,0,0,0,0,0,0,0,0,0,0,0,0,0,0,0,0,0,0,0,0,0,0,0,0,2],
		 [2,0,2,2,2,2,2,2,2,2,2,2,2,2,2,2,2,2,2,2,2,2,2,2,2,2,2,2,2,2,2,2,2,2,2,0,2,0,2],
		 [2,0,2,0,0,0,0,0,0,0,0,0,0,0,0,0,0,0,0,0,0,0,0,0,0,0,0,0,0,0,0,0,0,0,0,0,2,0,2],
		 [2,0,2,0,0,0,0,0,0,0,0,0,0,0,0,0,0,2,3,1,3,3,1,3,2,0,0,0,0,0,0,0,0,0,0,0,2,0,2],
		 [2,0,2,0,0,0,0,0,0,0,0,0,0,0,0,0,0,3,1,1,1,1,1,1,3,0,0,0,0,0,0,0,0,0,0,0,2,0,2],
		 [2,0,2,0,0,0,0,0,0,0,0,0,0,0,0,0,0,3,1,1,1,1,1,1,3,0,0,0,0,0,0,0,0,0,0,0,2,0,2],
		 [2,0,2,0,0,0,5,0,0,0,0,0,0,0,0,0,0,1,1,1,1,1,1,1,3,0,0,0,0,0,0,0,0,0,0,0,2,0,2],
		 [2,0,2,0,0,0,5,5,0,0,0,0,0,0,0,0,0,1,1,1,1,1,1,1,3,0,0,0,0,0,0,0,0,0,0,0,2,0,2],
		 [2,0,2,0,0,0,0,0,0,0,0,0,0,0,0,0,0,3,1,1,1,1,1,1,2,3,3,3,3,3,3,3,3,2,0,0,2,0,2],
		 [2,0,2,0,0,0,0,0,0,0,0,0,0,0,0,0,0,3,1,1,1,1,1,1,3,0,0,0,0,0,0,0,0,3,0,0,2,0,2],
		 [2,0,2,0,0,0,0,0,0,0,0,0,2,3,3,3,3,2,3,3,3,1,1,1,2,0,0,0,0,0,0,0,0,0,0,0,2,0,2],
		 [2,0,2,0,0,0,0,0,0,0,0,0,3,1,1,1,1,1,1,1,1,1,1,1,3,0,0,0,0,0,0,0,0,0,0,0,2,0,2],
		 [2,0,2,0,0,0,0,0,0,0,0,0,3,1,1,1,1,1,1,1,1,1,1,1,3,0,0,0,0,0,0,0,0,3,0,0,2,0,2],
		 [2,0,2,0,0,0,0,0,0,0,0,0,3,1,1,1,1,1,1,1,1,1,1,1,3,0,0,0,0,0,0,0,0,3,0,0,2,0,2],
		 [2,0,2,0,0,0,0,0,0,0,0,0,3,1,1,1,1,1,1,1,1,1,1,1,3,0,0,0,0,0,0,0,0,3,0,0,2,0,2],
		 [2,0,2,0,0,0,0,0,0,0,0,0,3,1,1,1,1,1,1,1,1,1,1,1,3,0,0,0,0,0,0,0,0,3,0,0,2,0,2],
		 [2,0,2,0,0,0,0,0,0,0,0,0,3,1,1,1,1,1,1,1,1,1,1,1,3,0,0,0,0,0,0,0,0,3,0,0,2,0,2],
		 [2,0,2,0,0,0,0,0,0,0,0,0,3,1,1,1,1,1,1,1,1,1,1,1,3,0,0,0,0,0,0,0,0,3,0,0,2,0,2],
		 [2,0,2,0,0,0,0,0,0,0,0,0,3,1,1,1,1,1,1,1,1,1,1,1,0,0,0,0,0,0,0,0,0,3,0,0,2,0,2],
		 [2,0,2,0,0,0,0,0,0,0,0,0,3,1,1,1,1,1,1,1,1,1,1,1,0,0,0,0,0,0,0,0,0,3,0,0,2,0,2],
		 [2,0,2,2,2,2,2,2,2,2,2,2,2,3,3,3,3,3,3,3,3,3,3,3,2,3,3,3,3,3,3,3,3,2,2,0,2,0,2],
		 [2,0,0,0,0,0,0,0,0,0,0,0,3,0,0,0,0,0,0,0,0,0,0,0,0,0,0,0,0,0,0,0,0,0,0,0,0,0,2],
		 [2,2,0,2,2,2,2,2,2,2,2,2,2,2,2,2,2,2,2,2,2,2,2,2,2,2,2,2,2,2,2,2,2,2,2,2,2,2,2]],
	"warps":
		[
		 ],
	"zombies":
		[
		 ],
	"lights":
		[{"x":100,"y":100,"color":"0xffffff","radius":100},
		 {"x":100,"y":150,"color":"0x555555","radius":100}
		 ],
	"width": 28,
	"start":{"x":120,"y":100},
	"height": 24,
	"tilesize": 16
}